0.000000000000000000e+00 -2.727467751707065992e-06
5.000000000000000000e-01 -2.735623468852252908e-06
1.000000000000000000e+00 -2.772276295466928818e-06
1.500000000000000000e+00 -2.784002644084016990e-06
2.000000000000000000e+00 -2.792795075530748088e-06
2.500000000000000000e+00 -2.789381378837967501e-06
3.000000000000000000e+00 -2.808335058964844410e-06
3.500000000000000000e+00 -2.852938799978368013e-06
4.000000000000000000e+00 -2.840944705974670696e-06
4.500000000000000000e+00 -2.859389752899094329e-06
5.000000000000000000e+00 -2.773109937927399980e-06
5.500000000000000000e+00 -2.853480833283546936e-06
6.000000000000000000e+00 -2.888089792987448308e-06
6.500000000000000000e+00 -2.908457850317578031e-06
7.000000000000000000e+00 -2.893607446489219795e-06
7.500000000000000000e+00 -2.884060290094406691e-06
8.000000000000000000e+00 -2.889119680126485130e-06
8.500000000000000000e+00 -2.900389360888138769e-06
9.000000000000000000e+00 -2.888021149930832122e-06
9.500000000000000000e+00 -2.886961109107990677e-06
1.000000000000000000e+01 -2.888143686212195097e-06
1.050000000000000000e+01 -2.828895507411234112e-06
1.100000000000000000e+01 -2.808030045754967331e-06
1.150000000000000000e+01 -2.789486837921104007e-06
1.200000000000000000e+01 -2.781288779449898172e-06
1.250000000000000000e+01 -2.749906069970385951e-06
1.300000000000000000e+01 -2.718141449247210564e-06
1.350000000000000000e+01 -2.679101266006636968e-06
1.400000000000000000e+01 -2.643346597288697740e-06
1.450000000000000000e+01 -2.591428316937296686e-06
1.500000000000000000e+01 -2.551412857418561531e-06
1.550000000000000000e+01 -2.500453022919447995e-06
1.600000000000000000e+01 -2.462273547856977102e-06
1.650000000000000000e+01 -2.398965501460034955e-06
1.700000000000000000e+01 -2.406004360590604798e-06
1.750000000000000000e+01 -2.375130102153354957e-06
1.800000000000000000e+01 -2.355296248935829604e-06
1.850000000000000000e+01 -2.245128565074925222e-06
1.900000000000000000e+01 -2.182050827781364458e-06
1.950000000000000000e+01 -2.118537363057886476e-06
2.000000000000000000e+01 -2.090286060086505741e-06
2.050000000000000000e+01 -2.043634862268017581e-06
2.100000000000000000e+01 -1.982703247170056805e-06
2.150000000000000000e+01 -1.944282104631190370e-06
2.200000000000000000e+01 -1.887736712512759996e-06
2.250000000000000000e+01 -1.838113622018225287e-06
2.300000000000000000e+01 -1.793629784089346423e-06
2.350000000000000000e+01 -1.786639578912957701e-06
2.400000000000000000e+01 -1.736072670247740572e-06
2.450000000000000000e+01 -1.708844714528049281e-06
2.500000000000000000e+01 -1.683985618271567464e-06
2.550000000000000000e+01 -1.656894531659799630e-06
2.600000000000000000e+01 -1.660618082826761947e-06
2.650000000000000000e+01 -1.649138665161592906e-06
2.700000000000000000e+01 -1.643939488788363989e-06
2.750000000000000000e+01 -1.623943577671917171e-06
2.800000000000000000e+01 -1.618248656369264778e-06
2.850000000000000000e+01 -1.612166303339856352e-06
2.900000000000000000e+01 -1.566056989896305349e-06
2.950000000000000000e+01 -1.518205712772296157e-06
3.000000000000000000e+01 -1.474634985064766251e-06
3.050000000000000000e+01 -1.416781372628845213e-06
3.100000000000000000e+01 -1.365956043725987310e-06
3.150000000000000000e+01 -1.299895883609756818e-06
3.200000000000000000e+01 -1.223667574946282907e-06
3.250000000000000000e+01 -1.151127845457168646e-06
3.300000000000000000e+01 -1.054451277433060625e-06
3.350000000000000000e+01 -9.519972953896828901e-07
3.400000000000000000e+01 -8.435597529252577815e-07
3.450000000000000000e+01 -7.147249904162953385e-07
3.500000000000000000e+01 -5.810627954536588465e-07
3.550000000000000000e+01 -4.234655568553747319e-07
3.600000000000000000e+01 -2.804809528705130115e-07
3.650000000000000000e+01 -1.295722766161493012e-07
3.700000000000000000e+01 4.077120002825347795e-08
3.750000000000000000e+01 1.880369050639008581e-07
3.800000000000000000e+01 3.465873150652080734e-07
3.850000000000000000e+01 4.977876753869213640e-07
3.900000000000000000e+01 6.475401105634267972e-07
3.950000000000000000e+01 7.575921134535320769e-07
4.000000000000000000e+01 8.544193982584372535e-07
4.050000000000000000e+01 9.841186692227039040e-07
4.100000000000000000e+01 1.120945404578943518e-06
4.150000000000000000e+01 1.246560806002263880e-06
4.200000000000000000e+01 1.363388733684975895e-06
4.250000000000000000e+01 1.410406627570047755e-06
4.300000000000000000e+01 1.462627734187692338e-06
4.350000000000000000e+01 1.530997599707586453e-06
4.400000000000000000e+01 1.582528299905718719e-06
4.450000000000000000e+01 1.611160829594351609e-06
4.500000000000000000e+01 1.635636243365824772e-06
4.550000000000000000e+01 1.649345834777383821e-06
4.600000000000000000e+01 1.622451142667911882e-06
4.650000000000000000e+01 1.605769126392371672e-06
4.700000000000000000e+01 1.595226662538941163e-06
4.750000000000000000e+01 1.566961504877572826e-06
4.800000000000000000e+01 1.553629928426424523e-06
4.850000000000000000e+01 1.531822337653615219e-06
4.900000000000000000e+01 1.491816439169013222e-06
4.950000000000000000e+01 1.451268795616748374e-06
5.000000000000000000e+01 1.403312014422308112e-06
5.050000000000000000e+01 1.359685867717438770e-06
5.100000000000000000e+01 1.292190469723369458e-06
5.150000000000000000e+01 1.221755219212576018e-06
5.200000000000000000e+01 1.150108280501322353e-06
5.250000000000000000e+01 1.067785125171574047e-06
5.300000000000000000e+01 9.919743853519183994e-07
5.350000000000000000e+01 9.277458963406309857e-07
5.400000000000000000e+01 8.796005464130325188e-07
5.450000000000000000e+01 8.553098910791779686e-07
5.500000000000000000e+01 8.191398425817651220e-07
5.550000000000000000e+01 8.047071888783343361e-07
5.600000000000000000e+01 7.915995249205155319e-07
5.650000000000000000e+01 7.832004222294230237e-07
5.700000000000000000e+01 7.929058236441734396e-07
5.750000000000000000e+01 7.991118789808736787e-07
5.800000000000000000e+01 8.130846323287269684e-07
5.850000000000000000e+01 8.435801025180487255e-07
5.900000000000000000e+01 8.942114427184507530e-07
5.950000000000000000e+01 9.528211248935411763e-07
6.000000000000000000e+01 1.027207983221431287e-06
6.050000000000000000e+01 1.108138135034343142e-06
6.100000000000000000e+01 1.205634467388994727e-06
6.150000000000000000e+01 1.310663894064943395e-06
6.200000000000000000e+01 1.423932045513094151e-06
6.250000000000000000e+01 1.528582576603585481e-06
6.300000000000000000e+01 1.642937594684464217e-06
6.350000000000000000e+01 1.753541345143647655e-06
6.400000000000000000e+01 1.867041202844969192e-06
6.450000000000000000e+01 1.974884288718248473e-06
6.500000000000000000e+01 2.070513641026977737e-06
6.550000000000000000e+01 2.168430460437639712e-06
6.600000000000000000e+01 2.252934043356450092e-06
6.650000000000000000e+01 2.329648780869364998e-06
6.700000000000000000e+01 2.398102514104815643e-06
6.750000000000000000e+01 2.474201049900264581e-06
6.800000000000000000e+01 2.548557808300109585e-06
6.850000000000000000e+01 2.632605302156215711e-06
6.900000000000000000e+01 2.700809772561533632e-06
6.950000000000000000e+01 2.772818585615307946e-06
7.000000000000000000e+01 2.841182298999615298e-06
7.050000000000000000e+01 2.908189202791765703e-06
7.100000000000000000e+01 2.968120539694539992e-06
7.150000000000000000e+01 3.030784687039440706e-06
7.200000000000000000e+01 3.090210311222460390e-06
7.250000000000000000e+01 3.155592265425657892e-06
7.300000000000000000e+01 3.215317985264602364e-06
7.350000000000000000e+01 3.262507130886706622e-06
7.400000000000000000e+01 3.309746360826689630e-06
7.450000000000000000e+01 3.351167968303149331e-06
7.500000000000000000e+01 3.382046277003159460e-06
7.550000000000000000e+01 3.410865884986799889e-06
7.600000000000000000e+01 3.427604117538162402e-06
7.650000000000000000e+01 3.442244803179549647e-06
7.700000000000000000e+01 3.448998025570590473e-06
7.750000000000000000e+01 3.440901199143009829e-06
7.800000000000000000e+01 3.426799673927480257e-06
7.850000000000000000e+01 3.404314571581020324e-06
7.900000000000000000e+01 3.373440470887279951e-06
7.950000000000000000e+01 3.325843019734915723e-06
8.000000000000000000e+01 3.289196200232972996e-06
8.050000000000000000e+01 3.233961202317584364e-06
8.100000000000000000e+01 3.176787661106095792e-06
8.150000000000000000e+01 3.121206345026837720e-06
8.200000000000000000e+01 3.069584799097618674e-06
8.250000000000000000e+01 3.006965367438200227e-06
8.300000000000000000e+01 2.956696273295253589e-06
8.350000000000000000e+01 2.908797791912621390e-06
8.400000000000000000e+01 2.862025896408389525e-06
8.450000000000000000e+01 2.805544808887131049e-06
8.500000000000000000e+01 2.737780384263288610e-06
8.550000000000000000e+01 2.676002450434301824e-06
8.600000000000000000e+01 2.602774135570542517e-06
8.650000000000000000e+01 2.528558052182120242e-06
8.700000000000000000e+01 2.454408660244962169e-06
8.750000000000000000e+01 2.388040635601281123e-06
8.800000000000000000e+01 2.320819290776149595e-06
8.850000000000000000e+01 2.257925810947918215e-06
8.900000000000000000e+01 2.189527817223876699e-06
8.950000000000000000e+01 2.122451181756876295e-06
9.000000000000000000e+01 2.059644100198946052e-06
9.050000000000000000e+01 1.989607550305678990e-06
9.100000000000000000e+01 1.932113056940712279e-06
9.150000000000000000e+01 1.878276333191249128e-06
9.200000000000000000e+01 1.836475151686380315e-06
9.250000000000000000e+01 1.791728869557659537e-06
9.300000000000000000e+01 1.749361935782071046e-06
9.350000000000000000e+01 1.709822565031913800e-06
9.400000000000000000e+01 1.665497657609124741e-06
9.450000000000000000e+01 1.632220761877665942e-06
9.500000000000000000e+01 1.601479431796223112e-06
9.550000000000000000e+01 1.567567305284980124e-06
9.600000000000000000e+01 1.538744759127811374e-06
9.650000000000000000e+01 1.514871189765244171e-06
9.700000000000000000e+01 1.485165003269453233e-06
9.750000000000000000e+01 1.465509760041264085e-06
9.800000000000000000e+01 1.434512717865656298e-06
9.850000000000000000e+01 1.413813890928023599e-06
9.900000000000000000e+01 1.392424912991848213e-06
9.950000000000000000e+01 1.363864760146525100e-06
1.000000000000000000e+02 1.325404520896185351e-06
1.005000000000000000e+02 1.279533806815048148e-06
1.010000000000000000e+02 1.235142577913468082e-06
1.015000000000000000e+02 1.180635424954135962e-06
1.020000000000000000e+02 1.132599807602042649e-06
1.025000000000000000e+02 1.078341572450217220e-06
1.030000000000000000e+02 1.023615638824026695e-06
1.035000000000000000e+02 9.678639330338832358e-07
1.040000000000000000e+02 8.950766853603844981e-07
1.045000000000000000e+02 8.285850943442026655e-07
1.050000000000000000e+02 7.616244746999186670e-07
1.055000000000000000e+02 6.885294385955212421e-07
1.060000000000000000e+02 6.099591205364154053e-07
1.065000000000000000e+02 5.318460971659190019e-07
1.070000000000000000e+02 4.429748235804930408e-07
1.075000000000000000e+02 3.543930700593843731e-07
1.080000000000000000e+02 2.730437646013282344e-07
1.085000000000000000e+02 1.886069332723733021e-07
1.090000000000000000e+02 9.287394122115561679e-08
1.095000000000000000e+02 -2.020899341143333465e-09
1.100000000000000000e+02 -9.777914493205289782e-08
1.105000000000000000e+02 -1.953751584080701445e-07
1.110000000000000000e+02 -2.902898917644574678e-07
1.115000000000000000e+02 -3.719613825954510732e-07
1.120000000000000000e+02 -4.470720679322050478e-07
1.125000000000000000e+02 -5.176242173847087027e-07
1.130000000000000000e+02 -5.795991171453903484e-07
1.135000000000000000e+02 -6.381612060997460429e-07
1.140000000000000000e+02 -6.966693918240648731e-07
1.145000000000000000e+02 -7.425562212377343052e-07
1.150000000000000000e+02 -7.776042180661997833e-07
1.155000000000000000e+02 -8.185960110849093556e-07
1.160000000000000000e+02 -8.605744014189274205e-07
1.165000000000000000e+02 -9.023322713542824225e-07
1.170000000000000000e+02 -9.367784238870474702e-07
1.175000000000000000e+02 -9.761057107317973168e-07
1.180000000000000000e+02 -1.006013101189978656e-06
1.185000000000000000e+02 -1.044250195015602522e-06
1.190000000000000000e+02 -1.084454361399330814e-06
1.195000000000000000e+02 -1.114062642137928794e-06
1.200000000000000000e+02 -1.147461709626763232e-06
1.205000000000000000e+02 -1.185197454128129801e-06
1.210000000000000000e+02 -1.240619151745244090e-06
1.215000000000000000e+02 -1.291996115042015657e-06
1.220000000000000000e+02 -1.347515394190661140e-06
1.225000000000000000e+02 -1.397224111200645215e-06
1.230000000000000000e+02 -1.448263594962582681e-06
1.235000000000000000e+02 -1.497985911792832499e-06
1.240000000000000000e+02 -1.554525446981003789e-06
1.245000000000000000e+02 -1.615918198259881363e-06
1.250000000000000000e+02 -1.680827447737329264e-06
1.255000000000000000e+02 -1.748071812074464007e-06
1.260000000000000000e+02 -1.815228730878172242e-06
1.265000000000000000e+02 -1.870679375702161913e-06
1.270000000000000000e+02 -1.923901791746691466e-06
1.275000000000000000e+02 -1.963038110517153485e-06
1.280000000000000000e+02 -2.001252604905014284e-06
1.285000000000000000e+02 -2.043910089830795426e-06
1.290000000000000000e+02 -2.082987802409491104e-06
1.295000000000000000e+02 -2.116660519443192234e-06
1.300000000000000000e+02 -2.152419282644536793e-06
1.305000000000000000e+02 -2.194558575436787678e-06
1.310000000000000000e+02 -2.240870089093066296e-06
1.315000000000000000e+02 -2.283633528087712069e-06
1.320000000000000000e+02 -2.320272848512966348e-06
1.325000000000000000e+02 -2.353981738586660807e-06
1.330000000000000000e+02 -2.389727354986744344e-06
1.335000000000000000e+02 -2.418140766232374224e-06
1.340000000000000000e+02 -2.441912992249316929e-06
1.345000000000000000e+02 -2.464231041904484970e-06
1.350000000000000000e+02 -2.475724084661785129e-06
1.355000000000000000e+02 -2.481527673699663815e-06
1.360000000000000000e+02 -2.491148350427849484e-06
1.365000000000000000e+02 -2.507042172050659319e-06
1.370000000000000000e+02 -2.514786796812866609e-06
1.375000000000000000e+02 -2.521727913697977452e-06
1.380000000000000000e+02 -2.536040346661434450e-06
1.385000000000000000e+02 -2.552493360305903164e-06
1.390000000000000000e+02 -2.563017505692601622e-06
1.395000000000000000e+02 -2.574184873007118393e-06
1.400000000000000000e+02 -2.578391400746361697e-06
1.405000000000000000e+02 -2.584411644557074167e-06
1.410000000000000000e+02 -2.603035509729282935e-06
1.415000000000000000e+02 -2.616959275173996522e-06
1.420000000000000000e+02 -2.636004780692575875e-06
1.425000000000000000e+02 -2.657019262342018697e-06
1.430000000000000000e+02 -2.678826831620656304e-06
1.435000000000000000e+02 -2.694890819152800157e-06
1.440000000000000000e+02 -2.712826195651456363e-06
1.445000000000000000e+02 -2.730985030409992212e-06
1.450000000000000000e+02 -2.754378935586599723e-06
1.455000000000000000e+02 -2.778320054255365025e-06
1.460000000000000000e+02 -2.806113364333573750e-06
1.465000000000000000e+02 -2.826549069679351313e-06
1.470000000000000000e+02 -2.842923693762957514e-06
1.475000000000000000e+02 -2.858155701842373566e-06
1.480000000000000000e+02 -2.867547098501939052e-06
1.485000000000000000e+02 -2.883421150870231972e-06
1.490000000000000000e+02 -2.897175457532813573e-06
1.495000000000000000e+02 -2.919197757744199075e-06
1.500000000000000000e+02 -2.943947981012240237e-06
1.505000000000000000e+02 -2.970118330641696014e-06
1.510000000000000000e+02 -2.997409247971025937e-06
1.515000000000000000e+02 -3.024342599818832725e-06
1.520000000000000000e+02 -3.051392038170419896e-06
1.525000000000000000e+02 -3.076358067277351544e-06
1.530000000000000000e+02 -3.097294099068241907e-06
1.535000000000000000e+02 -3.114594932531486535e-06
1.540000000000000000e+02 -3.132784257576412123e-06
1.545000000000000000e+02 -3.149692570000595505e-06
1.550000000000000000e+02 -3.160016558330008646e-06
1.555000000000000000e+02 -3.160781169004979776e-06
1.560000000000000000e+02 -3.161504711586989144e-06
1.565000000000000000e+02 -3.159815837994554291e-06
1.570000000000000000e+02 -3.159973740019219872e-06
1.575000000000000000e+02 -3.162033356613456250e-06
1.580000000000000000e+02 -3.155353125991290283e-06
1.585000000000000000e+02 -3.138889839696167290e-06
1.590000000000000000e+02 -3.117151055048357957e-06
1.595000000000000000e+02 -3.091192070252218009e-06
1.600000000000000000e+02 -3.055550088072635844e-06
1.605000000000000000e+02 -3.020946222404287888e-06
1.610000000000000000e+02 -2.981875257131169951e-06
1.615000000000000000e+02 -2.936946192777406893e-06
1.620000000000000000e+02 -2.885031407276185272e-06
1.625000000000000000e+02 -2.824760004654212473e-06
1.630000000000000000e+02 -2.757192008201255306e-06
1.635000000000000000e+02 -2.691446272369561222e-06
1.640000000000000000e+02 -2.621768657408134093e-06
1.645000000000000000e+02 -2.546787516399920616e-06
1.650000000000000000e+02 -2.471181289437869812e-06
1.655000000000000000e+02 -2.395979975457163064e-06
1.660000000000000000e+02 -2.319042385397433432e-06
1.665000000000000000e+02 -2.249324585801861034e-06
1.670000000000000000e+02 -2.181076694724195506e-06
1.675000000000000000e+02 -2.110782867612569122e-06
1.680000000000000000e+02 -2.042697446586379092e-06
1.685000000000000000e+02 -1.977939569430713726e-06
1.690000000000000000e+02 -1.918017448301107374e-06
1.695000000000000000e+02 -1.862274288946899670e-06
1.700000000000000000e+02 -1.807364891888025384e-06
1.705000000000000000e+02 -1.754238886275671425e-06
1.710000000000000000e+02 -1.699569400814641943e-06
1.715000000000000000e+02 -1.637701418889450520e-06
1.720000000000000000e+02 -1.578300350097719640e-06
1.725000000000000000e+02 -1.519635112275690508e-06
1.730000000000000000e+02 -1.454709146331050711e-06
1.735000000000000000e+02 -1.394846732940818212e-06
1.740000000000000000e+02 -1.334246382389509561e-06
1.745000000000000000e+02 -1.268544477021666563e-06
1.750000000000000000e+02 -1.202786157842845873e-06
1.755000000000000000e+02 -1.133797724709764539e-06
1.760000000000000000e+02 -1.061115541229630460e-06
1.765000000000000000e+02 -9.845076825033656094e-07
1.770000000000000000e+02 -9.080307938785098861e-07
1.775000000000000000e+02 -8.351400153090210721e-07
1.780000000000000000e+02 -7.578110048782419523e-07
1.785000000000000000e+02 -6.746851348964884936e-07
1.790000000000000000e+02 -5.853549290340893936e-07
1.795000000000000000e+02 -4.931184086563198329e-07
1.800000000000000000e+02 -3.953970484700388506e-07
1.805000000000000000e+02 -2.955547904922925126e-07
1.810000000000000000e+02 -1.929293597205072670e-07
1.815000000000000000e+02 -8.617608320393294959e-08
1.820000000000000000e+02 1.760839035997336869e-08
1.825000000000000000e+02 1.260104527932371700e-07
1.830000000000000000e+02 2.333409381352082545e-07
1.835000000000000000e+02 3.406691843704233869e-07
1.840000000000000000e+02 4.381524879439872083e-07
1.845000000000000000e+02 5.340938906872111338e-07
1.850000000000000000e+02 6.281010313215571066e-07
1.855000000000000000e+02 7.251502277630663937e-07
1.860000000000000000e+02 8.265285574926207932e-07
1.865000000000000000e+02 9.272006763421422382e-07
1.870000000000000000e+02 1.032628438360813908e-06
1.875000000000000000e+02 1.129801301008630763e-06
1.880000000000000000e+02 1.227080522615328290e-06
1.885000000000000000e+02 1.317079291610621824e-06
1.890000000000000000e+02 1.396465144077248211e-06
1.895000000000000000e+02 1.471420306054998459e-06
1.900000000000000000e+02 1.540984671619429611e-06
1.905000000000000000e+02 1.609915280187066151e-06
1.910000000000000000e+02 1.671508317896227562e-06
1.915000000000000000e+02 1.718326597414993998e-06
1.920000000000000000e+02 1.766389337717926393e-06
1.925000000000000000e+02 1.812092712878542374e-06
1.930000000000000000e+02 1.852239819281516429e-06
1.935000000000000000e+02 1.885931361721075721e-06
1.940000000000000000e+02 1.922108205817113412e-06
1.945000000000000000e+02 1.960997192772461783e-06
1.950000000000000000e+02 1.998016496191412388e-06
1.955000000000000000e+02 2.033386722961578264e-06
1.960000000000000000e+02 2.074655714543383799e-06
1.965000000000000000e+02 2.115657360115472864e-06
1.970000000000000000e+02 2.153769354942981909e-06
1.975000000000000000e+02 2.188525273462730687e-06
1.980000000000000000e+02 2.225769851976743278e-06
1.985000000000000000e+02 2.265559380969573197e-06
1.990000000000000000e+02 2.306700212106661145e-06
1.995000000000000000e+02 2.349621308539112462e-06
2.000000000000000000e+02 2.398918185749482939e-06
