0.000000000000000000e+00 -2.727978442833824138e-05
5.000000000000000000e-01 -2.725170872058558583e-05
1.000000000000000000e+00 -2.727700991818816803e-05
1.500000000000000000e+00 -2.733548265680148039e-05
2.000000000000000000e+00 -2.741248288820497550e-05
2.500000000000000000e+00 -2.743499377758357912e-05
3.000000000000000000e+00 -2.760300291283303341e-05
3.500000000000000000e+00 -2.768760986014536315e-05
4.000000000000000000e+00 -2.798464295356449576e-05
4.500000000000000000e+00 -2.808078852442126000e-05
5.000000000000000000e+00 -2.825900448403053611e-05
5.500000000000000000e+00 -2.835069574285661829e-05
6.000000000000000000e+00 -2.849774669817764283e-05
6.500000000000000000e+00 -2.866752845885099459e-05
7.000000000000000000e+00 -2.877543839318920054e-05
7.500000000000000000e+00 -2.885766084184145227e-05
8.000000000000000000e+00 -2.892482533979615013e-05
8.500000000000000000e+00 -2.897171261311364712e-05
9.000000000000000000e+00 -2.888120872306542918e-05
9.500000000000000000e+00 -2.883599513578864057e-05
1.000000000000000000e+01 -2.874264333491625731e-05
1.050000000000000000e+01 -2.851607970185976934e-05
1.100000000000000000e+01 -2.834144717128779336e-05
1.150000000000000000e+01 -2.810003171470111199e-05
1.200000000000000000e+01 -2.780803349609379613e-05
1.250000000000000000e+01 -2.751123834260756708e-05
1.300000000000000000e+01 -2.717367620126445886e-05
1.350000000000000000e+01 -2.682006385152818469e-05
1.400000000000000000e+01 -2.644695558901992470e-05
1.450000000000000000e+01 -2.602771731334765310e-05
1.500000000000000000e+01 -2.560840682305385793e-05
1.550000000000000000e+01 -2.518645409271092500e-05
1.600000000000000000e+01 -2.478007775823789103e-05
1.650000000000000000e+01 -2.436191723432318553e-05
1.700000000000000000e+01 -2.394322686087479971e-05
1.750000000000000000e+01 -2.356015705625957689e-05
1.800000000000000000e+01 -2.316058264304987716e-05
1.850000000000000000e+01 -2.271716568150252037e-05
1.900000000000000000e+01 -2.229152262843330507e-05
1.950000000000000000e+01 -2.189726982589951224e-05
2.000000000000000000e+01 -2.153252261759605992e-05
